C:\Users\slo-mo\Centennial College\Bitbucket\EmergingTech\PatientMonitoring\PatientMonitoring\public\app\authentication\authentication.service.js
C:\Users\slo-mo\Centennial College\Bitbucket\EmergingTech\PatientMonitoring\PatientMonitoring\public\app\authentication\authentication.service.js.map
C:\Users\slo-mo\Centennial College\Bitbucket\EmergingTech\PatientMonitoring\PatientMonitoring\public\app\app.component.js
C:\Users\slo-mo\Centennial College\Bitbucket\EmergingTech\PatientMonitoring\PatientMonitoring\public\app\app.component.js.map
C:\Users\slo-mo\Centennial College\Bitbucket\EmergingTech\PatientMonitoring\PatientMonitoring\public\app\app.routes.js
C:\Users\slo-mo\Centennial College\Bitbucket\EmergingTech\PatientMonitoring\PatientMonitoring\public\app\app.routes.js.map
C:\Users\slo-mo\Centennial College\Bitbucket\EmergingTech\PatientMonitoring\PatientMonitoring\public\app\home\home.component.js
C:\Users\slo-mo\Centennial College\Bitbucket\EmergingTech\PatientMonitoring\PatientMonitoring\public\app\home\home.component.js.map
C:\Users\slo-mo\Centennial College\Bitbucket\EmergingTech\PatientMonitoring\PatientMonitoring\public\app\home\home.routes.js
C:\Users\slo-mo\Centennial College\Bitbucket\EmergingTech\PatientMonitoring\PatientMonitoring\public\app\home\home.routes.js.map
C:\Users\slo-mo\Centennial College\Bitbucket\EmergingTech\PatientMonitoring\PatientMonitoring\public\app\home\home.module.js
C:\Users\slo-mo\Centennial College\Bitbucket\EmergingTech\PatientMonitoring\PatientMonitoring\public\app\home\home.module.js.map
C:\Users\slo-mo\Centennial College\Bitbucket\EmergingTech\PatientMonitoring\PatientMonitoring\public\app\authentication\signin\signin.component.js
C:\Users\slo-mo\Centennial College\Bitbucket\EmergingTech\PatientMonitoring\PatientMonitoring\public\app\authentication\signin\signin.component.js.map
C:\Users\slo-mo\Centennial College\Bitbucket\EmergingTech\PatientMonitoring\PatientMonitoring\public\app\authentication\signup\signup.component.js
C:\Users\slo-mo\Centennial College\Bitbucket\EmergingTech\PatientMonitoring\PatientMonitoring\public\app\authentication\signup\signup.component.js.map
C:\Users\slo-mo\Centennial College\Bitbucket\EmergingTech\PatientMonitoring\PatientMonitoring\public\app\authentication\authentication.component.js
C:\Users\slo-mo\Centennial College\Bitbucket\EmergingTech\PatientMonitoring\PatientMonitoring\public\app\authentication\authentication.component.js.map
C:\Users\slo-mo\Centennial College\Bitbucket\EmergingTech\PatientMonitoring\PatientMonitoring\public\app\authentication\authentication.routes.js
C:\Users\slo-mo\Centennial College\Bitbucket\EmergingTech\PatientMonitoring\PatientMonitoring\public\app\authentication\authentication.routes.js.map
C:\Users\slo-mo\Centennial College\Bitbucket\EmergingTech\PatientMonitoring\PatientMonitoring\public\app\authentication\authentication.module.js
C:\Users\slo-mo\Centennial College\Bitbucket\EmergingTech\PatientMonitoring\PatientMonitoring\public\app\authentication\authentication.module.js.map
C:\Users\slo-mo\Centennial College\Bitbucket\EmergingTech\PatientMonitoring\PatientMonitoring\public\app\alerts\alerts.service.js
C:\Users\slo-mo\Centennial College\Bitbucket\EmergingTech\PatientMonitoring\PatientMonitoring\public\app\alerts\alerts.service.js.map
C:\Users\slo-mo\Centennial College\Bitbucket\EmergingTech\PatientMonitoring\PatientMonitoring\public\app\alerts\alerts.component.js
C:\Users\slo-mo\Centennial College\Bitbucket\EmergingTech\PatientMonitoring\PatientMonitoring\public\app\alerts\alerts.component.js.map
C:\Users\slo-mo\Centennial College\Bitbucket\EmergingTech\PatientMonitoring\PatientMonitoring\public\app\alerts\create\create.component.js
C:\Users\slo-mo\Centennial College\Bitbucket\EmergingTech\PatientMonitoring\PatientMonitoring\public\app\alerts\create\create.component.js.map
C:\Users\slo-mo\Centennial College\Bitbucket\EmergingTech\PatientMonitoring\PatientMonitoring\public\app\alerts\view\view.component.js
C:\Users\slo-mo\Centennial College\Bitbucket\EmergingTech\PatientMonitoring\PatientMonitoring\public\app\alerts\view\view.component.js.map
C:\Users\slo-mo\Centennial College\Bitbucket\EmergingTech\PatientMonitoring\PatientMonitoring\public\app\alerts\list\list.component.js
C:\Users\slo-mo\Centennial College\Bitbucket\EmergingTech\PatientMonitoring\PatientMonitoring\public\app\alerts\list\list.component.js.map
C:\Users\slo-mo\Centennial College\Bitbucket\EmergingTech\PatientMonitoring\PatientMonitoring\public\app\alerts\alerts.routes.js
C:\Users\slo-mo\Centennial College\Bitbucket\EmergingTech\PatientMonitoring\PatientMonitoring\public\app\alerts\alerts.routes.js.map
C:\Users\slo-mo\Centennial College\Bitbucket\EmergingTech\PatientMonitoring\PatientMonitoring\public\app\alerts\alerts.module.js
C:\Users\slo-mo\Centennial College\Bitbucket\EmergingTech\PatientMonitoring\PatientMonitoring\public\app\alerts\alerts.module.js.map
C:\Users\slo-mo\Centennial College\Bitbucket\EmergingTech\PatientMonitoring\PatientMonitoring\public\app\vitalsigns\vitalsigns.service.js
C:\Users\slo-mo\Centennial College\Bitbucket\EmergingTech\PatientMonitoring\PatientMonitoring\public\app\vitalsigns\vitalsigns.service.js.map
C:\Users\slo-mo\Centennial College\Bitbucket\EmergingTech\PatientMonitoring\PatientMonitoring\public\app\vitalsigns\vitalsigns.component.js
C:\Users\slo-mo\Centennial College\Bitbucket\EmergingTech\PatientMonitoring\PatientMonitoring\public\app\vitalsigns\vitalsigns.component.js.map
C:\Users\slo-mo\Centennial College\Bitbucket\EmergingTech\PatientMonitoring\PatientMonitoring\public\app\vitalsigns\record\record.component.js
C:\Users\slo-mo\Centennial College\Bitbucket\EmergingTech\PatientMonitoring\PatientMonitoring\public\app\vitalsigns\record\record.component.js.map
C:\Users\slo-mo\Centennial College\Bitbucket\EmergingTech\PatientMonitoring\PatientMonitoring\public\app\vitalsigns\view\view.component.js
C:\Users\slo-mo\Centennial College\Bitbucket\EmergingTech\PatientMonitoring\PatientMonitoring\public\app\vitalsigns\view\view.component.js.map
C:\Users\slo-mo\Centennial College\Bitbucket\EmergingTech\PatientMonitoring\PatientMonitoring\public\app\vitalsigns\edit\edit.component.js
C:\Users\slo-mo\Centennial College\Bitbucket\EmergingTech\PatientMonitoring\PatientMonitoring\public\app\vitalsigns\edit\edit.component.js.map
C:\Users\slo-mo\Centennial College\Bitbucket\EmergingTech\PatientMonitoring\PatientMonitoring\public\app\vitalsigns\list\list.component.js
C:\Users\slo-mo\Centennial College\Bitbucket\EmergingTech\PatientMonitoring\PatientMonitoring\public\app\vitalsigns\list\list.component.js.map
C:\Users\slo-mo\Centennial College\Bitbucket\EmergingTech\PatientMonitoring\PatientMonitoring\public\app\vitalsigns\vitalsigns.routes.js
C:\Users\slo-mo\Centennial College\Bitbucket\EmergingTech\PatientMonitoring\PatientMonitoring\public\app\vitalsigns\vitalsigns.routes.js.map
C:\Users\slo-mo\Centennial College\Bitbucket\EmergingTech\PatientMonitoring\PatientMonitoring\public\app\vitalsigns\vitalsigns.module.js
C:\Users\slo-mo\Centennial College\Bitbucket\EmergingTech\PatientMonitoring\PatientMonitoring\public\app\vitalsigns\vitalsigns.module.js.map
C:\Users\slo-mo\Centennial College\Bitbucket\EmergingTech\PatientMonitoring\PatientMonitoring\public\app\tips\tips.service.js
C:\Users\slo-mo\Centennial College\Bitbucket\EmergingTech\PatientMonitoring\PatientMonitoring\public\app\tips\tips.service.js.map
C:\Users\slo-mo\Centennial College\Bitbucket\EmergingTech\PatientMonitoring\PatientMonitoring\public\app\tips\tips.component.js
C:\Users\slo-mo\Centennial College\Bitbucket\EmergingTech\PatientMonitoring\PatientMonitoring\public\app\tips\tips.component.js.map
C:\Users\slo-mo\Centennial College\Bitbucket\EmergingTech\PatientMonitoring\PatientMonitoring\public\app\tips\view\view.component.js
C:\Users\slo-mo\Centennial College\Bitbucket\EmergingTech\PatientMonitoring\PatientMonitoring\public\app\tips\view\view.component.js.map
C:\Users\slo-mo\Centennial College\Bitbucket\EmergingTech\PatientMonitoring\PatientMonitoring\public\app\tips\create\create.component.js
C:\Users\slo-mo\Centennial College\Bitbucket\EmergingTech\PatientMonitoring\PatientMonitoring\public\app\tips\create\create.component.js.map
C:\Users\slo-mo\Centennial College\Bitbucket\EmergingTech\PatientMonitoring\PatientMonitoring\public\app\tips\list\list.component.js
C:\Users\slo-mo\Centennial College\Bitbucket\EmergingTech\PatientMonitoring\PatientMonitoring\public\app\tips\list\list.component.js.map
C:\Users\slo-mo\Centennial College\Bitbucket\EmergingTech\PatientMonitoring\PatientMonitoring\public\app\tips\tips.routes.js
C:\Users\slo-mo\Centennial College\Bitbucket\EmergingTech\PatientMonitoring\PatientMonitoring\public\app\tips\tips.routes.js.map
C:\Users\slo-mo\Centennial College\Bitbucket\EmergingTech\PatientMonitoring\PatientMonitoring\public\app\tips\tips.module.js
C:\Users\slo-mo\Centennial College\Bitbucket\EmergingTech\PatientMonitoring\PatientMonitoring\public\app\tips\tips.module.js.map
C:\Users\slo-mo\Centennial College\Bitbucket\EmergingTech\PatientMonitoring\PatientMonitoring\public\app\info\info.service.js
C:\Users\slo-mo\Centennial College\Bitbucket\EmergingTech\PatientMonitoring\PatientMonitoring\public\app\info\info.service.js.map
C:\Users\slo-mo\Centennial College\Bitbucket\EmergingTech\PatientMonitoring\PatientMonitoring\public\app\info\info.component.js
C:\Users\slo-mo\Centennial College\Bitbucket\EmergingTech\PatientMonitoring\PatientMonitoring\public\app\info\info.component.js.map
C:\Users\slo-mo\Centennial College\Bitbucket\EmergingTech\PatientMonitoring\PatientMonitoring\public\app\info\view\view.component.js
C:\Users\slo-mo\Centennial College\Bitbucket\EmergingTech\PatientMonitoring\PatientMonitoring\public\app\info\view\view.component.js.map
C:\Users\slo-mo\Centennial College\Bitbucket\EmergingTech\PatientMonitoring\PatientMonitoring\public\app\info\list\list.component.js
C:\Users\slo-mo\Centennial College\Bitbucket\EmergingTech\PatientMonitoring\PatientMonitoring\public\app\info\list\list.component.js.map
C:\Users\slo-mo\Centennial College\Bitbucket\EmergingTech\PatientMonitoring\PatientMonitoring\public\app\info\create\create.component.js
C:\Users\slo-mo\Centennial College\Bitbucket\EmergingTech\PatientMonitoring\PatientMonitoring\public\app\info\create\create.component.js.map
C:\Users\slo-mo\Centennial College\Bitbucket\EmergingTech\PatientMonitoring\PatientMonitoring\public\app\info\info.routes.js
C:\Users\slo-mo\Centennial College\Bitbucket\EmergingTech\PatientMonitoring\PatientMonitoring\public\app\info\info.routes.js.map
C:\Users\slo-mo\Centennial College\Bitbucket\EmergingTech\PatientMonitoring\PatientMonitoring\public\app\info\info.module.js
C:\Users\slo-mo\Centennial College\Bitbucket\EmergingTech\PatientMonitoring\PatientMonitoring\public\app\info\info.module.js.map
C:\Users\slo-mo\Centennial College\Bitbucket\EmergingTech\PatientMonitoring\PatientMonitoring\public\app\illness\illness.service.js
C:\Users\slo-mo\Centennial College\Bitbucket\EmergingTech\PatientMonitoring\PatientMonitoring\public\app\illness\illness.service.js.map
C:\Users\slo-mo\Centennial College\Bitbucket\EmergingTech\PatientMonitoring\PatientMonitoring\public\app\illness\illness.component.js
C:\Users\slo-mo\Centennial College\Bitbucket\EmergingTech\PatientMonitoring\PatientMonitoring\public\app\illness\illness.component.js.map
C:\Users\slo-mo\Centennial College\Bitbucket\EmergingTech\PatientMonitoring\PatientMonitoring\public\app\illness\view\view.component.js
C:\Users\slo-mo\Centennial College\Bitbucket\EmergingTech\PatientMonitoring\PatientMonitoring\public\app\illness\view\view.component.js.map
C:\Users\slo-mo\Centennial College\Bitbucket\EmergingTech\PatientMonitoring\PatientMonitoring\public\app\illness\list\list.component.js
C:\Users\slo-mo\Centennial College\Bitbucket\EmergingTech\PatientMonitoring\PatientMonitoring\public\app\illness\list\list.component.js.map
C:\Users\slo-mo\Centennial College\Bitbucket\EmergingTech\PatientMonitoring\PatientMonitoring\public\app\illness\create\create.component.js
C:\Users\slo-mo\Centennial College\Bitbucket\EmergingTech\PatientMonitoring\PatientMonitoring\public\app\illness\create\create.component.js.map
C:\Users\slo-mo\Centennial College\Bitbucket\EmergingTech\PatientMonitoring\PatientMonitoring\public\app\illness\illness.routes.js
C:\Users\slo-mo\Centennial College\Bitbucket\EmergingTech\PatientMonitoring\PatientMonitoring\public\app\illness\illness.routes.js.map
C:\Users\slo-mo\Centennial College\Bitbucket\EmergingTech\PatientMonitoring\PatientMonitoring\public\app\illness\illness.module.js
C:\Users\slo-mo\Centennial College\Bitbucket\EmergingTech\PatientMonitoring\PatientMonitoring\public\app\illness\illness.module.js.map
C:\Users\slo-mo\Centennial College\Bitbucket\EmergingTech\PatientMonitoring\PatientMonitoring\public\app\app.module.js
C:\Users\slo-mo\Centennial College\Bitbucket\EmergingTech\PatientMonitoring\PatientMonitoring\public\app\app.module.js.map
C:\Users\slo-mo\Centennial College\Bitbucket\EmergingTech\PatientMonitoring\PatientMonitoring\public\app\bootstrap.js
C:\Users\slo-mo\Centennial College\Bitbucket\EmergingTech\PatientMonitoring\PatientMonitoring\public\app\bootstrap.js.map
C:\Users\slo-mo\Centennial College\Bitbucket\EmergingTech\PatientMonitoring\PatientMonitoring\public\app\authentication\authentication.service.js
C:\Users\slo-mo\Centennial College\Bitbucket\EmergingTech\PatientMonitoring\PatientMonitoring\public\app\authentication\authentication.service.js.map
C:\Users\slo-mo\Centennial College\Bitbucket\EmergingTech\PatientMonitoring\PatientMonitoring\public\app\app.component.js
C:\Users\slo-mo\Centennial College\Bitbucket\EmergingTech\PatientMonitoring\PatientMonitoring\public\app\app.component.js.map
C:\Users\slo-mo\Centennial College\Bitbucket\EmergingTech\PatientMonitoring\PatientMonitoring\public\app\app.routes.js
C:\Users\slo-mo\Centennial College\Bitbucket\EmergingTech\PatientMonitoring\PatientMonitoring\public\app\app.routes.js.map
C:\Users\slo-mo\Centennial College\Bitbucket\EmergingTech\PatientMonitoring\PatientMonitoring\public\app\home\home.component.js
C:\Users\slo-mo\Centennial College\Bitbucket\EmergingTech\PatientMonitoring\PatientMonitoring\public\app\home\home.component.js.map
C:\Users\slo-mo\Centennial College\Bitbucket\EmergingTech\PatientMonitoring\PatientMonitoring\public\app\home\home.routes.js
C:\Users\slo-mo\Centennial College\Bitbucket\EmergingTech\PatientMonitoring\PatientMonitoring\public\app\home\home.routes.js.map
C:\Users\slo-mo\Centennial College\Bitbucket\EmergingTech\PatientMonitoring\PatientMonitoring\public\app\home\home.module.js
C:\Users\slo-mo\Centennial College\Bitbucket\EmergingTech\PatientMonitoring\PatientMonitoring\public\app\home\home.module.js.map
C:\Users\slo-mo\Centennial College\Bitbucket\EmergingTech\PatientMonitoring\PatientMonitoring\public\app\authentication\signin\signin.component.js
C:\Users\slo-mo\Centennial College\Bitbucket\EmergingTech\PatientMonitoring\PatientMonitoring\public\app\authentication\signin\signin.component.js.map
C:\Users\slo-mo\Centennial College\Bitbucket\EmergingTech\PatientMonitoring\PatientMonitoring\public\app\authentication\signup\signup.component.js
C:\Users\slo-mo\Centennial College\Bitbucket\EmergingTech\PatientMonitoring\PatientMonitoring\public\app\authentication\signup\signup.component.js.map
C:\Users\slo-mo\Centennial College\Bitbucket\EmergingTech\PatientMonitoring\PatientMonitoring\public\app\authentication\authentication.component.js
C:\Users\slo-mo\Centennial College\Bitbucket\EmergingTech\PatientMonitoring\PatientMonitoring\public\app\authentication\authentication.component.js.map
C:\Users\slo-mo\Centennial College\Bitbucket\EmergingTech\PatientMonitoring\PatientMonitoring\public\app\authentication\authentication.routes.js
C:\Users\slo-mo\Centennial College\Bitbucket\EmergingTech\PatientMonitoring\PatientMonitoring\public\app\authentication\authentication.routes.js.map
C:\Users\slo-mo\Centennial College\Bitbucket\EmergingTech\PatientMonitoring\PatientMonitoring\public\app\authentication\authentication.module.js
C:\Users\slo-mo\Centennial College\Bitbucket\EmergingTech\PatientMonitoring\PatientMonitoring\public\app\authentication\authentication.module.js.map
C:\Users\slo-mo\Centennial College\Bitbucket\EmergingTech\PatientMonitoring\PatientMonitoring\public\app\alerts\alerts.service.js
C:\Users\slo-mo\Centennial College\Bitbucket\EmergingTech\PatientMonitoring\PatientMonitoring\public\app\alerts\alerts.service.js.map
C:\Users\slo-mo\Centennial College\Bitbucket\EmergingTech\PatientMonitoring\PatientMonitoring\public\app\alerts\alerts.component.js
C:\Users\slo-mo\Centennial College\Bitbucket\EmergingTech\PatientMonitoring\PatientMonitoring\public\app\alerts\alerts.component.js.map
C:\Users\slo-mo\Centennial College\Bitbucket\EmergingTech\PatientMonitoring\PatientMonitoring\public\app\alerts\create\create.component.js
C:\Users\slo-mo\Centennial College\Bitbucket\EmergingTech\PatientMonitoring\PatientMonitoring\public\app\alerts\create\create.component.js.map
C:\Users\slo-mo\Centennial College\Bitbucket\EmergingTech\PatientMonitoring\PatientMonitoring\public\app\alerts\view\view.component.js
C:\Users\slo-mo\Centennial College\Bitbucket\EmergingTech\PatientMonitoring\PatientMonitoring\public\app\alerts\view\view.component.js.map
C:\Users\slo-mo\Centennial College\Bitbucket\EmergingTech\PatientMonitoring\PatientMonitoring\public\app\alerts\list\list.component.js
C:\Users\slo-mo\Centennial College\Bitbucket\EmergingTech\PatientMonitoring\PatientMonitoring\public\app\alerts\list\list.component.js.map
C:\Users\slo-mo\Centennial College\Bitbucket\EmergingTech\PatientMonitoring\PatientMonitoring\public\app\alerts\alerts.routes.js
C:\Users\slo-mo\Centennial College\Bitbucket\EmergingTech\PatientMonitoring\PatientMonitoring\public\app\alerts\alerts.routes.js.map
C:\Users\slo-mo\Centennial College\Bitbucket\EmergingTech\PatientMonitoring\PatientMonitoring\public\app\alerts\alerts.module.js
C:\Users\slo-mo\Centennial College\Bitbucket\EmergingTech\PatientMonitoring\PatientMonitoring\public\app\alerts\alerts.module.js.map
C:\Users\slo-mo\Centennial College\Bitbucket\EmergingTech\PatientMonitoring\PatientMonitoring\public\app\vitalsigns\vitalsigns.service.js
C:\Users\slo-mo\Centennial College\Bitbucket\EmergingTech\PatientMonitoring\PatientMonitoring\public\app\vitalsigns\vitalsigns.service.js.map
C:\Users\slo-mo\Centennial College\Bitbucket\EmergingTech\PatientMonitoring\PatientMonitoring\public\app\vitalsigns\vitalsigns.component.js
C:\Users\slo-mo\Centennial College\Bitbucket\EmergingTech\PatientMonitoring\PatientMonitoring\public\app\vitalsigns\vitalsigns.component.js.map
C:\Users\slo-mo\Centennial College\Bitbucket\EmergingTech\PatientMonitoring\PatientMonitoring\public\app\vitalsigns\record\record.component.js
C:\Users\slo-mo\Centennial College\Bitbucket\EmergingTech\PatientMonitoring\PatientMonitoring\public\app\vitalsigns\record\record.component.js.map
C:\Users\slo-mo\Centennial College\Bitbucket\EmergingTech\PatientMonitoring\PatientMonitoring\public\app\vitalsigns\view\view.component.js
C:\Users\slo-mo\Centennial College\Bitbucket\EmergingTech\PatientMonitoring\PatientMonitoring\public\app\vitalsigns\view\view.component.js.map
C:\Users\slo-mo\Centennial College\Bitbucket\EmergingTech\PatientMonitoring\PatientMonitoring\public\app\vitalsigns\edit\edit.component.js
C:\Users\slo-mo\Centennial College\Bitbucket\EmergingTech\PatientMonitoring\PatientMonitoring\public\app\vitalsigns\edit\edit.component.js.map
C:\Users\slo-mo\Centennial College\Bitbucket\EmergingTech\PatientMonitoring\PatientMonitoring\public\app\vitalsigns\list\list.component.js
C:\Users\slo-mo\Centennial College\Bitbucket\EmergingTech\PatientMonitoring\PatientMonitoring\public\app\vitalsigns\list\list.component.js.map
C:\Users\slo-mo\Centennial College\Bitbucket\EmergingTech\PatientMonitoring\PatientMonitoring\public\app\vitalsigns\vitalsigns.routes.js
C:\Users\slo-mo\Centennial College\Bitbucket\EmergingTech\PatientMonitoring\PatientMonitoring\public\app\vitalsigns\vitalsigns.routes.js.map
C:\Users\slo-mo\Centennial College\Bitbucket\EmergingTech\PatientMonitoring\PatientMonitoring\public\app\vitalsigns\vitalsigns.module.js
C:\Users\slo-mo\Centennial College\Bitbucket\EmergingTech\PatientMonitoring\PatientMonitoring\public\app\vitalsigns\vitalsigns.module.js.map
C:\Users\slo-mo\Centennial College\Bitbucket\EmergingTech\PatientMonitoring\PatientMonitoring\public\app\tips\tips.service.js
C:\Users\slo-mo\Centennial College\Bitbucket\EmergingTech\PatientMonitoring\PatientMonitoring\public\app\tips\tips.service.js.map
C:\Users\slo-mo\Centennial College\Bitbucket\EmergingTech\PatientMonitoring\PatientMonitoring\public\app\tips\tips.component.js
C:\Users\slo-mo\Centennial College\Bitbucket\EmergingTech\PatientMonitoring\PatientMonitoring\public\app\tips\tips.component.js.map
C:\Users\slo-mo\Centennial College\Bitbucket\EmergingTech\PatientMonitoring\PatientMonitoring\public\app\tips\view\view.component.js
C:\Users\slo-mo\Centennial College\Bitbucket\EmergingTech\PatientMonitoring\PatientMonitoring\public\app\tips\view\view.component.js.map
C:\Users\slo-mo\Centennial College\Bitbucket\EmergingTech\PatientMonitoring\PatientMonitoring\public\app\tips\create\create.component.js
C:\Users\slo-mo\Centennial College\Bitbucket\EmergingTech\PatientMonitoring\PatientMonitoring\public\app\tips\create\create.component.js.map
C:\Users\slo-mo\Centennial College\Bitbucket\EmergingTech\PatientMonitoring\PatientMonitoring\public\app\tips\list\list.component.js
C:\Users\slo-mo\Centennial College\Bitbucket\EmergingTech\PatientMonitoring\PatientMonitoring\public\app\tips\list\list.component.js.map
C:\Users\slo-mo\Centennial College\Bitbucket\EmergingTech\PatientMonitoring\PatientMonitoring\public\app\tips\tips.routes.js
C:\Users\slo-mo\Centennial College\Bitbucket\EmergingTech\PatientMonitoring\PatientMonitoring\public\app\tips\tips.routes.js.map
C:\Users\slo-mo\Centennial College\Bitbucket\EmergingTech\PatientMonitoring\PatientMonitoring\public\app\tips\tips.module.js
C:\Users\slo-mo\Centennial College\Bitbucket\EmergingTech\PatientMonitoring\PatientMonitoring\public\app\tips\tips.module.js.map
C:\Users\slo-mo\Centennial College\Bitbucket\EmergingTech\PatientMonitoring\PatientMonitoring\public\app\info\info.service.js
C:\Users\slo-mo\Centennial College\Bitbucket\EmergingTech\PatientMonitoring\PatientMonitoring\public\app\info\info.service.js.map
C:\Users\slo-mo\Centennial College\Bitbucket\EmergingTech\PatientMonitoring\PatientMonitoring\public\app\info\info.component.js
C:\Users\slo-mo\Centennial College\Bitbucket\EmergingTech\PatientMonitoring\PatientMonitoring\public\app\info\info.component.js.map
C:\Users\slo-mo\Centennial College\Bitbucket\EmergingTech\PatientMonitoring\PatientMonitoring\public\app\info\view\view.component.js
C:\Users\slo-mo\Centennial College\Bitbucket\EmergingTech\PatientMonitoring\PatientMonitoring\public\app\info\view\view.component.js.map
C:\Users\slo-mo\Centennial College\Bitbucket\EmergingTech\PatientMonitoring\PatientMonitoring\public\app\info\list\list.component.js
C:\Users\slo-mo\Centennial College\Bitbucket\EmergingTech\PatientMonitoring\PatientMonitoring\public\app\info\list\list.component.js.map
C:\Users\slo-mo\Centennial College\Bitbucket\EmergingTech\PatientMonitoring\PatientMonitoring\public\app\info\create\create.component.js
C:\Users\slo-mo\Centennial College\Bitbucket\EmergingTech\PatientMonitoring\PatientMonitoring\public\app\info\create\create.component.js.map
C:\Users\slo-mo\Centennial College\Bitbucket\EmergingTech\PatientMonitoring\PatientMonitoring\public\app\info\info.routes.js
C:\Users\slo-mo\Centennial College\Bitbucket\EmergingTech\PatientMonitoring\PatientMonitoring\public\app\info\info.routes.js.map
C:\Users\slo-mo\Centennial College\Bitbucket\EmergingTech\PatientMonitoring\PatientMonitoring\public\app\info\info.module.js
C:\Users\slo-mo\Centennial College\Bitbucket\EmergingTech\PatientMonitoring\PatientMonitoring\public\app\info\info.module.js.map
C:\Users\slo-mo\Centennial College\Bitbucket\EmergingTech\PatientMonitoring\PatientMonitoring\public\app\illness\illness.service.js
C:\Users\slo-mo\Centennial College\Bitbucket\EmergingTech\PatientMonitoring\PatientMonitoring\public\app\illness\illness.service.js.map
C:\Users\slo-mo\Centennial College\Bitbucket\EmergingTech\PatientMonitoring\PatientMonitoring\public\app\illness\illness.component.js
C:\Users\slo-mo\Centennial College\Bitbucket\EmergingTech\PatientMonitoring\PatientMonitoring\public\app\illness\illness.component.js.map
C:\Users\slo-mo\Centennial College\Bitbucket\EmergingTech\PatientMonitoring\PatientMonitoring\public\app\illness\view\view.component.js
C:\Users\slo-mo\Centennial College\Bitbucket\EmergingTech\PatientMonitoring\PatientMonitoring\public\app\illness\view\view.component.js.map
C:\Users\slo-mo\Centennial College\Bitbucket\EmergingTech\PatientMonitoring\PatientMonitoring\public\app\illness\list\list.component.js
C:\Users\slo-mo\Centennial College\Bitbucket\EmergingTech\PatientMonitoring\PatientMonitoring\public\app\illness\list\list.component.js.map
C:\Users\slo-mo\Centennial College\Bitbucket\EmergingTech\PatientMonitoring\PatientMonitoring\public\app\illness\create\create.component.js
C:\Users\slo-mo\Centennial College\Bitbucket\EmergingTech\PatientMonitoring\PatientMonitoring\public\app\illness\create\create.component.js.map
C:\Users\slo-mo\Centennial College\Bitbucket\EmergingTech\PatientMonitoring\PatientMonitoring\public\app\illness\illness.routes.js
C:\Users\slo-mo\Centennial College\Bitbucket\EmergingTech\PatientMonitoring\PatientMonitoring\public\app\illness\illness.routes.js.map
C:\Users\slo-mo\Centennial College\Bitbucket\EmergingTech\PatientMonitoring\PatientMonitoring\public\app\illness\illness.module.js
C:\Users\slo-mo\Centennial College\Bitbucket\EmergingTech\PatientMonitoring\PatientMonitoring\public\app\illness\illness.module.js.map
C:\Users\slo-mo\Centennial College\Bitbucket\EmergingTech\PatientMonitoring\PatientMonitoring\public\app\app.module.js
C:\Users\slo-mo\Centennial College\Bitbucket\EmergingTech\PatientMonitoring\PatientMonitoring\public\app\app.module.js.map
C:\Users\slo-mo\Centennial College\Bitbucket\EmergingTech\PatientMonitoring\PatientMonitoring\public\app\bootstrap.js
C:\Users\slo-mo\Centennial College\Bitbucket\EmergingTech\PatientMonitoring\PatientMonitoring\public\app\bootstrap.js.map
